<svg width="10" height="11" viewBox="0 0 10 11" fill="none" xmlns="http://www.w3.org/2000/svg">
<path d="M4.50321 0.698883C2.26523 1.45901 0.708375 3.67735 0.950757 6.06241C1.01904 6.727 1.22579 7.3672 1.55888 7.94542C1.89197 8.52364 2.34469 9.02824 2.89046 9.4296C3.43623 9.83096 4.06406 10.121 4.7371 10.2827C5.41014 10.4444 6.11482 10.4744 6.80979 10.3711C7.61639 10.2594 8.38959 9.96333 9.06343 9.50808C9.10576 9.4823 9.14594 9.45334 9.18357 9.42147C9.23163 9.38155 9.26814 9.33043 9.28931 9.27338C9.31049 9.21634 9.31556 9.15544 9.30402 9.09698C9.29248 9.03852 9.26473 8.98462 9.22365 8.94085C9.18257 8.89707 9.12964 8.86501 9.07033 8.84798C9.00306 8.82916 8.93461 8.81397 8.86531 8.80249C7.36036 8.45432 6.21702 7.64942 5.49302 6.34559C4.77515 5.05735 4.68515 3.69538 5.18825 2.27945C5.34053 1.85653 5.55296 1.45399 5.8194 1.08345C5.85183 1.03818 5.88641 0.993868 5.91489 0.945986C5.98761 0.826313 6.01724 0.701255 5.93687 0.580166C5.8994 0.518647 5.84237 0.470567 5.77376 0.442654C5.70515 0.414742 5.62838 0.408394 5.55422 0.4245C5.31647 0.467924 5.08035 0.521084 4.84621 0.579845C4.73001 0.613881 4.61552 0.653614 4.50321 0.698883ZM4.83598 1.29726C4.05166 2.86996 3.92566 4.4464 4.5513 6.03365C5.17694 7.6209 6.36008 8.67696 8.00409 9.28987C7.04134 9.82061 5.22984 10.0352 3.75328 9.14248C2.15406 8.17517 1.43905 6.74269 1.70491 4.91457C1.96472 3.12753 3.0907 1.95243 4.8349 1.29765L4.83598 1.29726Z" fill="#333333"/>
</svg>
